\relax 
\providecommand\hyper@newdestlabel[2]{}
\providecommand\HyperFirstAtBeginDocument{\AtBeginDocument}
\HyperFirstAtBeginDocument{\ifx\hyper@anchor\@undefined
\global\let\oldcontentsline\contentsline
\gdef\contentsline#1#2#3#4{\oldcontentsline{#1}{#2}{#3}}
\global\let\oldnewlabel\newlabel
\gdef\newlabel#1#2{\newlabelxx{#1}#2}
\gdef\newlabelxx#1#2#3#4#5#6{\oldnewlabel{#1}{{#2}{#3}}}
\AtEndDocument{\ifx\hyper@anchor\@undefined
\let\contentsline\oldcontentsline
\let\newlabel\oldnewlabel
\fi}
\fi}
\global\let\hyper@last\relax 
\gdef\HyperFirstAtBeginDocument#1{#1}
\providecommand\HyField@AuxAddToFields[1]{}
\providecommand\HyField@AuxAddToCoFields[2]{}
\@writefile{toc}{\contentsline {schapter}{Introduction}{v}{chapter*.1}}
\@writefile{toc}{\contentsline {chapter}{\numberline {1}A Few Mathematical Prerequisites}{1}{chapter.1}}
\@writefile{toc}{\contentsline {section}{\numberline {1.1}Algebra}{1}{section.1.1}}
\@writefile{toc}{\contentsline {section}{\numberline {1.2}Trigonometry}{1}{section.1.2}}
\@writefile{toc}{\contentsline {section}{\numberline {1.3}Vectors}{1}{section.1.3}}
\@writefile{lof}{\contentsline {figure}{\numberline {1.1\relax }{\ignorespaces An Example Unit Vector\relax }}{2}{figure.caption.4}}
\providecommand*\caption@xref[2]{\@setref\relax\@undefined{#1}}
\newlabel{unitvector1}{{1.1\relax }{2}{An Example Unit Vector\relax }{figure.caption.4}{}}
\@writefile{lof}{\contentsline {figure}{\numberline {1.2\relax }{\ignorespaces An Second Example Unit Vector\relax }}{3}{figure.caption.5}}
\newlabel{unitvector2}{{1.2\relax }{3}{An Second Example Unit Vector\relax }{figure.caption.5}{}}
\@writefile{toc}{\contentsline {section}{\numberline {1.4}Differential Calculus}{3}{section.1.4}}
\@writefile{toc}{\contentsline {section}{\numberline {1.5}Integral Calculus}{4}{section.1.5}}
\@writefile{lof}{\contentsline {figure}{\numberline {1.3\relax }{\ignorespaces A line along the x-axis\relax }}{4}{figure.caption.6}}
\newlabel{calcfig1}{{1.3\relax }{4}{A line along the x-axis\relax }{figure.caption.6}{}}
\@writefile{lof}{\contentsline {figure}{\numberline {1.4\relax }{\ignorespaces The infinitesimal length along the arc of a circle\relax }}{5}{figure.caption.7}}
\newlabel{calcfig2}{{1.4\relax }{5}{The infinitesimal length along the arc of a circle\relax }{figure.caption.7}{}}
\@writefile{lof}{\contentsline {figure}{\numberline {1.5\relax }{\ignorespaces Finding the area of a rectangle by considering the infinitesimal area $dA$\relax }}{5}{figure.caption.8}}
\newlabel{calcfig3}{{1.5\relax }{5}{Finding the area of a rectangle by considering the infinitesimal area $dA$\relax }{figure.caption.8}{}}
\@writefile{lof}{\contentsline {figure}{\numberline {1.6\relax }{\ignorespaces Finding the area under the curve $y=x$ from $x=0$ to $x=a$\relax }}{6}{figure.caption.9}}
\newlabel{calcfig4}{{1.6\relax }{6}{Finding the area under the curve $y=x$ from $x=0$ to $x=a$\relax }{figure.caption.9}{}}
\@writefile{toc}{\contentsline {chapter}{\numberline {2}Coulomb's Law: The Force Between Charges}{7}{chapter.2}}
\@writefile{toc}{\contentsline {section}{\numberline {2.1}Experimentally Establishing Coulomb's Law}{7}{section.2.1}}
\newlabel{coulombexperiment}{{\caption@xref {coulombexperiment}{ on input line 253}}{8}{Experimentally Establishing Coulomb's Law}{figure.caption.10}{}}
\@writefile{toc}{\contentsline {section}{\numberline {2.2}Coulomb's Law Breakdown}{8}{section.2.2}}
\@writefile{lof}{\contentsline {figure}{\numberline {2.2\relax }{\ignorespaces Coulomb's Law Example\relax }}{10}{figure.caption.11}}
\newlabel{coulombgraphic3}{{2.2\relax }{10}{Coulomb's Law Example\relax }{figure.caption.11}{}}
\@writefile{lof}{\contentsline {figure}{\numberline {2.3\relax }{\ignorespaces Coulomb's Law Example with $r$, $\theta $, $\mathaccentV {hat}05E{r}_{12}$ added.\relax }}{10}{figure.caption.12}}
\newlabel{coulombgraphic4}{{2.3\relax }{10}{Coulomb's Law Example with $r$, $\theta $, $\hat {r}_{12}$ added.\relax }{figure.caption.12}{}}
\@writefile{toc}{\contentsline {section}{\numberline {2.3}Units and Scaling}{11}{section.2.3}}
\@writefile{toc}{\contentsline {section}{\numberline {2.4}A Curious Parallel}{12}{section.2.4}}
\@writefile{toc}{\contentsline {section}{\numberline {2.5}The Superposition Principle}{12}{section.2.5}}
\@writefile{lof}{\contentsline {figure}{\numberline {2.4\relax }{\ignorespaces Superposition Example\relax }}{13}{figure.caption.13}}
\newlabel{coulombgraphic5}{{2.4\relax }{13}{Superposition Example\relax }{figure.caption.13}{}}
\@writefile{lof}{\contentsline {figure}{\numberline {2.5\relax }{\ignorespaces Superposition Example with distances and unit vectors labeled\relax }}{14}{figure.caption.14}}
\newlabel{coulombgraphic6}{{2.5\relax }{14}{Superposition Example with distances and unit vectors labeled\relax }{figure.caption.14}{}}
\@writefile{toc}{\contentsline {section}{\numberline {2.6}Distributions of Charge}{14}{section.2.6}}
\@writefile{lof}{\contentsline {figure}{\numberline {2.6\relax }{\ignorespaces An example of a distribution of charge represented by the solid black line. In this case the charge is spread over the positive x-axis from 0 to a. $dq$ is one tiny piece of this distribution\relax }}{15}{figure.caption.15}}
\newlabel{coulombgraphic7}{{2.6\relax }{15}{An example of a distribution of charge represented by the solid black line. In this case the charge is spread over the positive x-axis from 0 to a. $dq$ is one tiny piece of this distribution\relax }{figure.caption.15}{}}
\@writefile{lof}{\contentsline {figure}{\numberline {2.7\relax }{\ignorespaces Graphical Representation of the Problem\relax }}{16}{figure.caption.16}}
\newlabel{coulombgraphic8}{{2.7\relax }{16}{Graphical Representation of the Problem\relax }{figure.caption.16}{}}
\@writefile{lof}{\contentsline {figure}{\numberline {2.8\relax }{\ignorespaces Problem with everything labeled\relax }}{17}{figure.caption.17}}
\newlabel{coulombgraphic9}{{2.8\relax }{17}{Problem with everything labeled\relax }{figure.caption.17}{}}
\@writefile{lof}{\contentsline {figure}{\numberline {2.9\relax }{\ignorespaces Oh God what have I done?\relax }}{18}{figure.caption.18}}
\newlabel{coulombgraphic10}{{2.9\relax }{18}{Oh God what have I done?\relax }{figure.caption.18}{}}
\@writefile{lof}{\contentsline {figure}{\numberline {2.10\relax }{\ignorespaces Hey that's where all the stuff goes!\relax }}{19}{figure.caption.19}}
\newlabel{coulombgraphic11}{{2.10\relax }{19}{Hey that's where all the stuff goes!\relax }{figure.caption.19}{}}
\@writefile{toc}{\contentsline {section}{\numberline {2.7}Summary}{20}{section.2.7}}
\@writefile{toc}{\contentsline {chapter}{\numberline {3}The Electric Field}{21}{chapter.3}}
\@writefile{toc}{\contentsline {section}{\numberline {3.1}The Definition of the Electric Field}{21}{section.3.1}}
\@writefile{lof}{\contentsline {figure}{\numberline {3.1\relax }{\ignorespaces Conceptual image of defining the electric field\relax }}{22}{figure.caption.20}}
\newlabel{electricfield1}{{3.1\relax }{22}{Conceptual image of defining the electric field\relax }{figure.caption.20}{}}
\@writefile{toc}{\contentsline {section}{\numberline {3.2}Reversing Our Definition}{22}{section.3.2}}
\@writefile{lof}{\contentsline {figure}{\numberline {3.2\relax }{\ignorespaces Electric Field produced by postive and negative charges\relax }}{23}{figure.caption.21}}
\newlabel{electricfield2}{{3.2\relax }{23}{Electric Field produced by postive and negative charges\relax }{figure.caption.21}{}}
\@writefile{toc}{\contentsline {section}{\numberline {3.3}Electric Field produced by distributions of charge and a new $dl$}{24}{section.3.3}}
\@writefile{lof}{\contentsline {figure}{\numberline {3.3\relax }{\ignorespaces Example 2\relax }}{24}{figure.caption.22}}
\newlabel{electricfield3}{{3.3\relax }{24}{Example 2\relax }{figure.caption.22}{}}
\@writefile{lof}{\contentsline {figure}{\numberline {3.4\relax }{\ignorespaces Example 2 annotated with vector swag\relax }}{24}{figure.caption.23}}
\newlabel{electricfield4}{{3.4\relax }{24}{Example 2 annotated with vector swag\relax }{figure.caption.23}{}}
\@writefile{toc}{\contentsline {section}{\numberline {3.4}Summary}{25}{section.3.4}}
\@writefile{toc}{\contentsline {chapter}{\numberline {4}The Electric Potential}{27}{chapter.4}}
\@writefile{toc}{\contentsline {section}{\numberline {4.1}A Review of the Dot Product}{27}{section.4.1}}
\@writefile{toc}{\contentsline {section}{\numberline {4.2}Revisiting Some Old Friends}{28}{section.4.2}}
\@writefile{toc}{\contentsline {section}{\numberline {4.3}This Shows Potential}{29}{section.4.3}}
\@writefile{toc}{\contentsline {section}{\numberline {4.4}Point Charges and A Geometrical Interpretation}{31}{section.4.4}}
\@writefile{lof}{\contentsline {figure}{\numberline {4.1\relax }{\ignorespaces Electric field and equipotential surfaces for a point charge\relax }}{32}{figure.caption.24}}
\newlabel{electricpotential1}{{4.1\relax }{32}{Electric field and equipotential surfaces for a point charge\relax }{figure.caption.24}{}}
\@writefile{lof}{\contentsline {figure}{\numberline {4.2\relax }{\ignorespaces Potato quality plot of the electric potential produced by a point charge\relax }}{32}{figure.caption.25}}
\newlabel{electricpotential2}{{4.2\relax }{32}{Potato quality plot of the electric potential produced by a point charge\relax }{figure.caption.25}{}}
\@writefile{toc}{\contentsline {section}{\numberline {4.5}Summary}{32}{section.4.5}}
\newlabel{electricpotential3}{{\caption@xref {electricpotential3}{ on input line 772}}{33}{Summary}{figure.caption.26}{}}
\@writefile{toc}{\contentsline {chapter}{\numberline {5}Flux and an Introduction to Gauss's Law}{35}{chapter.5}}
\@writefile{toc}{\contentsline {section}{\numberline {5.1}An Intruduction to Flux}{35}{section.5.1}}
\@writefile{lof}{\contentsline {figure}{\numberline {5.1\relax }{\ignorespaces Cube with sides $a$\relax }}{36}{figure.caption.27}}
\newlabel{gauss1}{{5.1\relax }{36}{Cube with sides $a$\relax }{figure.caption.27}{}}
\@writefile{toc}{\contentsline {section}{\numberline {5.2}Captain Gauss: The First Maxwell Equation}{37}{section.5.2}}
\@writefile{toc}{\contentsline {section}{\numberline {5.3}Summary}{38}{section.5.3}}
\@writefile{toc}{\contentsline {chapter}{\numberline {6}Symmetries and Applications of Gauss's Law}{39}{chapter.6}}
\@writefile{toc}{\contentsline {section}{\numberline {6.1}Picking a Surface Based on the Right Symmetry}{39}{section.6.1}}
\@writefile{toc}{\contentsline {section}{\numberline {6.2}Three Types of Symmetry}{40}{section.6.2}}
\@writefile{lof}{\contentsline {figure}{\numberline {6.1\relax }{\ignorespaces Example Gaussian Surfaces for a point charge of +Q\relax }}{41}{figure.caption.28}}
\newlabel{gauss2}{{6.1\relax }{41}{Example Gaussian Surfaces for a point charge of +Q\relax }{figure.caption.28}{}}
\@writefile{lof}{\contentsline {figure}{\numberline {6.2\relax }{\ignorespaces Example Gaussian Surfaces for Cylindrical Symmetry\relax }}{42}{figure.caption.29}}
\newlabel{gauss3}{{6.2\relax }{42}{Example Gaussian Surfaces for Cylindrical Symmetry\relax }{figure.caption.29}{}}
\@writefile{lof}{\contentsline {figure}{\numberline {6.3\relax }{\ignorespaces Example Gaussian Surfaces for planar symmetry\relax }}{42}{figure.caption.30}}
\newlabel{gauss4}{{6.3\relax }{42}{Example Gaussian Surfaces for planar symmetry\relax }{figure.caption.30}{}}
\@writefile{toc}{\contentsline {section}{\numberline {6.3}Conductors, Insulators, and Evaluating $q_{in}$}{42}{section.6.3}}
\@writefile{lof}{\contentsline {figure}{\numberline {6.4\relax }{\ignorespaces Gaussian surfaces for $r<a$, $a<r<b$, and $r>b$ left to right for Example 1\relax }}{43}{figure.caption.31}}
\newlabel{gauss5}{{6.4\relax }{43}{Gaussian surfaces for $r<a$, $a<r<b$, and $r>b$ left to right for Example 1\relax }{figure.caption.31}{}}
\@writefile{lof}{\contentsline {figure}{\numberline {6.5\relax }{\ignorespaces Gaussian surfaces for $r<a$ and $r>a$ left to right for Example 2\relax }}{44}{figure.caption.32}}
\newlabel{gauss6}{{6.5\relax }{44}{Gaussian surfaces for $r<a$ and $r>a$ left to right for Example 2\relax }{figure.caption.32}{}}
\@writefile{toc}{\contentsline {section}{\numberline {6.4}Summary}{46}{section.6.4}}
\@writefile{toc}{\contentsline {chapter}{\numberline {7}Circuit Components}{47}{chapter.7}}
\@writefile{toc}{\contentsline {section}{\numberline {7.1}Capacitors}{47}{section.7.1}}
\@writefile{lof}{\contentsline {figure}{\numberline {7.1\relax }{\ignorespaces Gaussian surface for parallel plate capacitor\relax }}{49}{figure.caption.33}}
\newlabel{gauss6}{{7.1\relax }{49}{Gaussian surface for parallel plate capacitor\relax }{figure.caption.33}{}}
\@writefile{toc}{\contentsline {section}{\numberline {7.2}Resistors}{50}{section.7.2}}
\@writefile{lof}{\contentsline {figure}{\numberline {7.2\relax }{\ignorespaces Diagram of the resistor described in \textbf  {Example 2}. Here we see the current is flowing from left to right. This means that the total area that the current flows through will be the cross sectional area $\pi a^2$. The current density vector $\mathaccentV {vec}17E{J}$ points to the right because the current flows to the right.\relax }}{51}{figure.caption.34}}
\newlabel{resistor1}{{7.2\relax }{51}{Diagram of the resistor described in \textbf {Example 2}. Here we see the current is flowing from left to right. This means that the total area that the current flows through will be the cross sectional area $\pi a^2$. The current density vector $\vec {J}$ points to the right because the current flows to the right.\relax }{figure.caption.34}{}}
\@writefile{toc}{\contentsline {chapter}{\numberline {8}Time Independent Circuits}{53}{chapter.8}}
\@writefile{toc}{\contentsline {section}{\numberline {8.1}A Little Bit of Review}{53}{section.8.1}}
\@writefile{lof}{\contentsline {figure}{\numberline {8.1\relax }{\ignorespaces Diagram of a closed loop path for finding the work done by the force of gravity.\relax }}{54}{figure.caption.35}}
\newlabel{circuit1}{{8.1\relax }{54}{Diagram of a closed loop path for finding the work done by the force of gravity.\relax }{figure.caption.35}{}}
\@writefile{toc}{\contentsline {section}{\numberline {8.2}Part One of Faraday's Law}{54}{section.8.2}}
\@writefile{toc}{\contentsline {section}{\numberline {8.3}Current Continuity}{55}{section.8.3}}
\@writefile{toc}{\contentsline {section}{\numberline {8.4}Steps for Circuit Analysis}{55}{section.8.4}}
\@writefile{lof}{\contentsline {figure}{\numberline {8.2\relax }{\ignorespaces \textbf  {Example 1}\relax }}{56}{figure.caption.36}}
\newlabel{circuit2}{{8.2\relax }{56}{\textbf {Example 1}\relax }{figure.caption.36}{}}
\@writefile{lof}{\contentsline {figure}{\numberline {8.3\relax }{\ignorespaces \textbf  {Example 1} with labeled currents and charges\relax }}{56}{figure.caption.37}}
\newlabel{circuit3}{{8.3\relax }{56}{\textbf {Example 1} with labeled currents and charges\relax }{figure.caption.37}{}}
\@writefile{lof}{\contentsline {figure}{\numberline {8.4\relax }{\ignorespaces \textbf  {Example 1} with labeled currents, charges, and loops\relax }}{57}{figure.caption.38}}
\newlabel{circuit4}{{8.4\relax }{57}{\textbf {Example 1} with labeled currents, charges, and loops\relax }{figure.caption.38}{}}
\@writefile{toc}{\contentsline {section}{\numberline {8.5}Summary}{59}{section.8.5}}
\@writefile{toc}{\contentsline {chapter}{\numberline {9}Magnetic Fields}{61}{chapter.9}}
\@writefile{toc}{\contentsline {section}{\numberline {9.1}The Cross Product}{61}{section.9.1}}
\@writefile{toc}{\contentsline {section}{\numberline {9.2}The Lorentz Force Law}{62}{section.9.2}}
\@writefile{toc}{\contentsline {section}{\numberline {9.3}The Biot Savart Law}{63}{section.9.3}}
\@writefile{lof}{\contentsline {figure}{\numberline {9.1\relax }{\ignorespaces \textbf  {Example 2} diagram with everything labeled\relax }}{64}{figure.caption.39}}
\newlabel{magnetic1}{{9.1\relax }{64}{\textbf {Example 2} diagram with everything labeled\relax }{figure.caption.39}{}}
\@writefile{toc}{\contentsline {section}{\numberline {9.4}Ampere's Law}{65}{section.9.4}}
\@writefile{lof}{\contentsline {figure}{\numberline {9.2\relax }{\ignorespaces \textbf  {Example 3} Diagram with Amperian loops\relax }}{67}{figure.caption.40}}
\newlabel{magnetic2}{{9.2\relax }{67}{\textbf {Example 3} Diagram with Amperian loops\relax }{figure.caption.40}{}}
\@writefile{toc}{\contentsline {section}{\numberline {9.5}Summary}{68}{section.9.5}}
\@writefile{toc}{\contentsline {chapter}{\numberline {10}Faraday's Law}{69}{chapter.10}}
\@writefile{toc}{\contentsline {section}{\numberline {10.1}The Cross Product Again}{70}{section.10.1}}
\@writefile{lof}{\contentsline {figure}{\numberline {10.1\relax }{\ignorespaces Diagram of the relationship between $d\mathaccentV {vec}17E{l}$ and $d\mathaccentV {vec}17E{A}$ when $d\mathaccentV {vec}17E{A}$ points into and out of the page.\relax }}{70}{figure.caption.41}}
\newlabel{faraday1}{{10.1\relax }{70}{Diagram of the relationship between $d\vec {l}$ and $d\vec {A}$ when $d\vec {A}$ points into and out of the page.\relax }{figure.caption.41}{}}
\@writefile{toc}{\contentsline {section}{\numberline {10.2}Faraday's Law Breakdown}{71}{section.10.2}}
\@writefile{toc}{\contentsline {section}{\numberline {10.3}Lenz's Law}{71}{section.10.3}}
\@writefile{toc}{\contentsline {section}{\numberline {10.4}Applications of Faraday's Law}{72}{section.10.4}}
\@writefile{lof}{\contentsline {figure}{\numberline {10.2\relax }{\ignorespaces Our choice for the direction of $d\mathaccentV {vec}17E{A}$ and by association $d\mathaccentV {vec}17E{l}$ for our example. I prefer to choose $d\mathaccentV {vec}17E{A}$ in the same direction as $\mathaccentV {vec}17E{B}$. I also choose $I$ to be in the same direction as $d\mathaccentV {vec}17E{l}$.\relax }}{73}{figure.caption.42}}
\newlabel{faraday2}{{10.2\relax }{73}{Our choice for the direction of $d\vec {A}$ and by association $d\vec {l}$ for our example. I prefer to choose $d\vec {A}$ in the same direction as $\vec {B}$. I also choose $I$ to be in the same direction as $d\vec {l}$.\relax }{figure.caption.42}{}}
\@writefile{toc}{\contentsline {section}{\numberline {10.5}Summary}{74}{section.10.5}}
\@writefile{toc}{\contentsline {chapter}{\numberline {11}Inductance and Time Dependent Circuits}{75}{chapter.11}}
\@writefile{toc}{\contentsline {section}{\numberline {11.1}Getting Inductance Out of Faraday's Law}{75}{section.11.1}}
\@writefile{toc}{\contentsline {section}{\numberline {11.2}Our First Time Dependent Circuit}{76}{section.11.2}}
\@writefile{lof}{\contentsline {figure}{\numberline {11.1\relax }{\ignorespaces Diagram of the circuit with the current, $d\mathaccentV {vec}17E{l}$, and $d\mathaccentV {vec}17E{A}$ labeled after the switch has been closed.\relax }}{77}{figure.caption.43}}
\newlabel{tdcircuit1}{{11.1\relax }{77}{Diagram of the circuit with the current, $d\vec {l}$, and $d\vec {A}$ labeled after the switch has been closed.\relax }{figure.caption.43}{}}
\@writefile{toc}{\contentsline {section}{\numberline {11.3}A Lot of Fancy Words: Solutions to Linear First Order Inhomogenous Differential Equations}{78}{section.11.3}}
\@writefile{toc}{\contentsline {section}{\numberline {11.4}Analogs In Mechanics: Grandma's Porch Door}{79}{section.11.4}}
\@writefile{toc}{\contentsline {section}{\numberline {11.5}Summary}{80}{section.11.5}}
\@writefile{toc}{\contentsline {chapter}{\numberline {12}Maxwell's Equation and the Wave Equation}{81}{chapter.12}}
\@writefile{toc}{\contentsline {section}{\numberline {12.1}How Maxwell Saved Ampere's Law}{81}{section.12.1}}
\@writefile{lof}{\contentsline {figure}{\numberline {12.1\relax }{\ignorespaces Maxwell's problem with Ampere's Law\relax }}{82}{figure.caption.44}}
\newlabel{tdcircuit1}{{12.1\relax }{82}{Maxwell's problem with Ampere's Law\relax }{figure.caption.44}{}}
\@writefile{toc}{\contentsline {section}{\numberline {12.2}Maxwell's Equations}{82}{section.12.2}}
\@writefile{toc}{\contentsline {section}{\numberline {12.3}The Wave Equation}{83}{section.12.3}}
\@writefile{lof}{\contentsline {figure}{\numberline {12.2\relax }{\ignorespaces Maxwell's Thought Experiment. The red arrows indicated the direction of $d\mathaccentV {vec}17E{l}$. The green arrows indicate the direction of $d\mathaccentV {vec}17E{A}$\relax }}{84}{figure.caption.45}}
\newlabel{WaveEquation1}{{12.2\relax }{84}{Maxwell's Thought Experiment. The red arrows indicated the direction of $d\vec {l}$. The green arrows indicate the direction of $d\vec {A}$\relax }{figure.caption.45}{}}
\@writefile{toc}{\contentsline {section}{\numberline {12.4}Maxwell's Equations in Differential Form}{86}{section.12.4}}
\@writefile{toc}{\contentsline {section}{\numberline {12.5}Summary}{87}{section.12.5}}
\@writefile{toc}{\contentsline {chapter}{\numberline {13}Epilogue}{89}{chapter.13}}
